,features
0,Y.w5.min
1,Vel_X
2,Angle
3,Acc_Pre.pcor
4,Lane_ID
5,Acc_Pre.scor
6,Y
7,Y_Pct.w5.max
8,Left_Dis
9,Right_Dis
10,X
11,X.w5.max
12,X.w5.min
13,Left_Dis_Pct
14,Right_Dis.w5.min
15,Y_Pct.w5.std
16,Right_Dis_Fol.w5.max
17,Y.w5.0.25
18,Y.w5.std
19,Left_Dis.w5.max
20,Angle.w5.max
21,Vel_X.w5.max
22,Right_Dis_Pct.w5.min
23,X.w5.0.95
24,Y.w2.min
25,Angle.w5.t
26,Left_Dis.w5.min
27,Acc_Dif_Fol.w5.min
28,Right_Dis_Fol.w5.0.95
29,Vel_Fol.w5.max
30,Left_Dis_Pct.w5.mean
31,Vel_Dif_Pre.w5.min
32,Right_Dis_Fol.w5.0.05
33,Time_Gap_Dif_Fol.w5.std
34,Right_Dis_Pct.w5.0.05
35,Left_Dis_Pct.w5.0.25
36,Y.w5.mean
37,Vel_Dif_Pre.w5.0.05
38,Angle.w5.0.50
39,Left_Dis_Pct.w5.min
40,X.w5.0.75
41,Time_Gap_Dif_Pre.w5.max
42,X.w5.0.05
43,Right_Dis_Pre.w5.max
44,Vel.w1.t
45,Angle.w5.mean
46,Space_Gap_Dif_Fol.w5.min
47,Space_Gap_Dif_Pre.w5.max
48,Space_Gap_Dif_Fol.w1.mean
49,Y.w5.0.05
50,Angle.w5.0.25
51,Left_Dis_Pct.w2.min
